…
``` r
# set the right order
hotels %>%
  mutate(mark_factor = factor(arrival_date_month, 
                              levels = c("January", "February", "March", "April", "June",
                                         "july", "August", "September", "October", 
                                         "November", "December")))
```

    ## # A tibble: 119,390 x 33
    ##    hotel        is_canceled lead_time arrival_date_year arrival_date_month
    ##    <chr>              <dbl>     <dbl>             <dbl> <chr>             
    ##  1 Resort Hotel           0       342              2015 July              
    ##  2 Resort Hotel           0       737              2015 July              
    ##  3 Resort Hotel           0         7              2015 July              
    ##  4 Resort Hotel           0        13              2015 July              
    ##  5 Resort Hotel           0        14              2015 July              
    ##  6 Resort Hotel           0        14              2015 July              
    ##  7 Resort Hotel           0         0              2015 July              
    ##  8 Resort Hotel           0         9              2015 July              
    ##  9 Resort Hotel           1        85              2015 July              
    ## 10 Resort Hotel           1        75              2015 July              
    ## # … with 119,380 more rows, and 28 more variables:
    ## #   arrival_date_week_number <dbl>, arrival_date_day_of_month <dbl>,
    ## #   stays_in_weekend_nights <dbl>, stays_in_week_nights <dbl>, adults <dbl>,
    ## #   children <dbl>, babies <dbl>, meal <chr>, country <chr>,
    ## #   market_segment <chr>, distribution_channel <chr>, is_repeated_guest <dbl>,
    ## #   previous_cancellations <dbl>, previous_bookings_not_canceled <dbl>,
    ## #   reserved_room_type <chr>, assigned_room_type <chr>, booking_changes <dbl>,
    ## #   deposit_type <chr>, agent <chr>, company <chr>, days_in_waiting_list <dbl>,
    ## #   customer_type <chr>, adr <dbl>, required_car_parking_spaces <dbl>,
…
